<?xml version="1.0" encoding="UTF-8" standalone="no"?>
<svg
   height="300px"
   width="300px"
   fill="#000000"
   viewBox="0 0 50 50"
   x="0px"
   y="0px"
   version="1.1"
   id="svg3443"
   sodipodi:docname="volunteer.svg"
   inkscape:version="1.1.1 (3bf5ae0d25, 2021-09-20)"
   xmlns:inkscape="http://www.inkscape.org/namespaces/inkscape"
   xmlns:sodipodi="http://sodipodi.sourceforge.net/DTD/sodipodi-0.dtd"
   xmlns="http://www.w3.org/2000/svg"
   xmlns:svg="http://www.w3.org/2000/svg">
  <defs
     id="defs3447" />
  <sodipodi:namedview
     id="namedview3445"
     pagecolor="#ffffff"
     bordercolor="#666666"
     borderopacity="1.0"
     inkscape:pageshadow="2"
     inkscape:pageopacity="0.0"
     inkscape:pagecheckerboard="0"
     showgrid="false"
     inkscape:zoom="2.8833333"
     inkscape:cx="81.676301"
     inkscape:cy="150.17341"
     inkscape:window-width="1920"
     inkscape:window-height="1059"
     inkscape:window-x="0"
     inkscape:window-y="0"
     inkscape:window-maximized="1"
     inkscape:current-layer="g3441" />
  <g
     id="g3441">
    <path
       id="path3895"
       style="fill:#c73447;fill-opacity:1"
       d="m 28.64609,20.6571 c -0.182863,0.150111 -0.413721,0.229251 -0.65022,0.2229 -0.913536,-0.0072 -1.335768,-1.138176 -0.65047,-1.7423 3.70153,-3.1709 5.74025,-6.17188 5.74025,-8.44825 C 33.09001,9.210843 31.896683,8.0077241 30.41809,8 c -1.333333,0 -1.333333,-2 0,-2 2.582607,0.00892 4.670558,2.1068293 4.66719,4.68945 0,3.67865 -3.50128,7.45008 -6.43923,9.96765 z M 30.41809,2 C 28.445295,1.9946959 26.530775,2.668493 24.99615,3.9082 23.46152,2.6684945 21.546997,1.9946977 19.5742,2 c -4.790371,0.01197 -8.667203,3.899064 -8.66651,8.68945 0,9.14258 13.03,16.85059 13.58463,17.17481 0.311503,0.180987 0.696147,0.180987 1.00765,0 C 26.05456,27.54 39.08461,19.832 39.08461,10.68945 39.085303,5.8990601 35.208465,2.0119646 30.41809,2 Z" />
    <path
       id="path3891"
       style="fill:#041952;fill-opacity:1"
       d="M 12.99816,44 H 9.99866 V 32 h 2.9995 z M 46.79248,24.23 c -1.539442,-1.593475 -4.073041,-1.655824 -5.689,-0.14 l -7.69872,6.84 c 0.389265,0.750748 0.591635,1.584337 0.58993,2.43 -0.0084,2.232366 -1.392023,4.228554 -3.4794,5.02 l -6.46895,2.43 c -0.51606,0.184326 -1.084776,-0.07787 -1.27975,-0.59 -0.199685,-0.513777 0.06195,-1.091307 0.57986,-1.28 L 29.8154,36.51 C 31.124181,36.012718 31.990937,34.760064 31.995,33.36 31.943967,31.52609 30.469452,30.051333 28.63555,30 H 9.99866 C 9.9987594,28.895522 9.1034779,28.000088 7.999,28 H 3.99966 C 2.8951821,28.000088 1.9999006,28.895522 2,30 v 16 c -7.73e-5,1.104469 0.8951913,1.99989 1.99966,2 H 7.999 c 1.1044727,-1.05e-4 1.9997473,-0.895527 1.99967,-2 H 14.048 l 1.24979,0.51 c 7.962146,3.294324 17.141898,1.006102 22.62621,-5.64 l 9.10846,-11.01 c 1.376767,-1.660137 1.273064,-4.093042 -0.23998,-5.63 z" />
  </g>
</svg>
